# 1 "./src/worker.c"
# 1 "<built-in>"
# 1 "<command-line>"
# 31 "<command-line>"
# 1 "/usr/include/stdc-predef.h" 1 3 4
# 32 "<command-line>" 2
# 1 "./src/worker.c"
# 1 "./src/../include/worker.h" 1



int doSomething();
# 2 "./src/worker.c" 2

int doSomething(){
    int a = 1;
    int b = 20 + a;
    return b;
}
